Visualisation avec R
…
Transformer des lignes en colonnes avec pivot_wider()

Cette fonction sert à transformer des données du format long au format large (“wide”)

Journals_long |> 
  pivot_wider(names_from = variable,
              values_from = valeur) 

# A tibble: 180 × 5
      ID title                                               libprice pages charpp
   <int> <fct>                                                  <int> <int>  <int>
 1     1 Asian-Pacific Economic Literature                        123   440   3822
 2     2 South African Journal of Economic History                 20   309   1782
 3     3 Computational Economics                                  443   567   2924
 4     4 MOCT-MOST Economic Policy in Transitional Economics      276   520   3234
 5     5 Journal of Socio-Economics                               295   791   3024
 6     6 Labour Economics                                         344   609   2967
 7     7 Environment and Development economics                     90   602   3185
 8     8 Review. of Radical Political Economics                   242   665   2688
 9     9 Economics of Planning                                    226   243   3010
10    10 Metroeconomica                                           262   386   2501
# ℹ 170 more rows
…
